{
    "ricompensa": {
        "tipo": "downgrade",
        "img" : "hh.png",
        "num": "10"
    },
    "missioni": [
        {
            "tipo": "click_on_obj",
            "obj": "#(farfalla)",
            "backgroung-img": "#",
            "storia": "#",
            "nozione": "brontosauro: #"
        },
        {
            "tipo": "open_quest",
            "quest": {
                "domanda": "#",
                "risposta": "#"
            },
            "background-img": "#",
            "storia": "#",
            "nozione": "triceratopo: #"
        },
        {
            "tipo": "closed_quest",
            "quest": {
                "domanda": "#",
                "opzioni": [
                    "#",
                    "#",
                    "#"
                ],
                "corretta": "1/2/3"
            },
            "background-img": "#",
            "storia": "#",
            "nozione": "pterodattilo"
        },
        {
            "tipo": "closed_quest",
            "quest": {
                "domanda": "#",
                "opzioni": [
                    "#",
                    "#"
                ],
                "corretta": "1/2"
            },
            "background-img": "#",
            "storia": "#",
            "nozione": "stegosauro: #"
        },
        {
            "tipo": "closed_quest",
            "quest": {
                "domanda": "#",
                "opzioni": [
                    "#",
                    "#"
                ],
                "corretta": "1/2"
            },
            "background-img": "#",
            "storia": "#",
            "nozione": "t-rex: #"
        },
        {
            "tipo": "open_quest",
            "quest": {
                "domanda": "#",
                "risposta": "#"
            },
            "background-img": "#",
            "storia": "#",
            "nozione": "velociraptor: #generali"
        },
        {
            "tipo": "only_history",
            "background-img": "#",
            "storia": "#",
            "nozione": "velociraptor: #mangia solo carne no uova"
        },
        {
            "tipo": "home_interact",
            "interazione": {
                "to-do": "#",
                "inserimento": [
                    "N",
                    "S",
                    "O",
                    "E",
                    "n",
                    "s",
                    "o",
                    "e"
                ] 
            },
            "background-img": "#",
            "storia": "#",
            "nozione": "Oviraptor: #"
        },
        {
            "tipo": "open_quest",
            "quest": {
                "domanda": "#",
                "risposta": "#"
            },
            "background-img": "#",
            "storia": "#"
        },
        {
            "tipo": "closed_quest",
            "quest": {
                "domanda": "#",
                "opzioni": [
                    "#",
                    "#"
                ],
                "corretta": "1/2"
            },
            "background-img": "#",
            "storia": "#",
            "nozione": "anchilosauro: #"
        },
        {
            "tipo": "closed_quest",
            "quest": {
                "domanda": "#",
                "opzioni": [
                    "#",
                    "#"
                ],
                "corretta": "1/2"
            },
            "background-img": "#",
            "storia": "#",
            "nozione": "anchilosauro: #"
        },
        {
            "tipo": "final_recap",
            "info": [
                "#",
                "#",
                "#"
            ],
            "domanda": {
                "tipo": "closed_quest",
                "quest": {
                    "domanda": "#",
                    "opzioni": [
                        "#",
                        "#",
                        "#"
                    ],
                    "corretta": "1/2"
                }
            }
        },
        {
            "tipo": "click_on_obj",
            "obj": "#(uova)",
            "backgroung-img": "#",
            "storia": "#"
        }
    ]
}
